<?xml version="1.0" encoding="utf-8"?>
<!-- Generator: Adobe Illustrator 18.1.1, SVG Export Plug-In . SVG Version: 6.00 Build 0)  -->
<svg version="1.1" id="Layer_1" xmlns="http://www.w3.org/2000/svg" xmlns:xlink="http://www.w3.org/1999/xlink" x="0px" y="0px"
	 viewBox="0 0 80 80" enable-background="new 0 0 80 80" xml:space="preserve">
<g>
	<path fill="#32A62E" d="M43.7,1.9l34.7,73.3H62.2l-21-44.6L18.5,75.2H2.1L39.4,1.9C39.4,1.9,43.7,1.9,43.7,1.9z"/>
</g>
</svg>
